…
residuals_scatter
```

<img src="linear_models_files/figure-gfm/unnamed-chunk-7-2.png" width="90%" />

add\_predictions is just plugging the values into the regression
equation and spitting out the value. add\_predictions is the same
structure as add\_residuals:

``` r
modelr::add_predictions(nyc_airbnb, fit)
```

    ## # A tibble: 40,492 x 6
    ##    price stars boro  neighborhood room_type        pred
    ##    <dbl> <dbl> <fct> <chr>        <fct>           <dbl>
    ##  1    99   5   Bronx City Island  Private room     89.5
    ##  2   200  NA   Bronx City Island  Private room     NA  
    ##  3   300  NA   Bronx City Island  Entire home/apt  NA  
    ##  4   125   5   Bronx City Island  Entire home/apt  89.5
    ##  5    69   5   Bronx City Island  Private room     89.5
    ##  6   125   5   Bronx City Island  Entire home/apt  89.5
    ##  7    85   5   Bronx City Island  Entire home/apt  89.5
    ##  8    39   4.5 Bronx Allerton     Private room     73.5
    ##  9    95   5   Bronx Allerton     Entire home/apt  89.5
    ## 10   125   4.5 Bronx Allerton     Entire home/apt  73.5
    ## # … with 40,482 more rows
…
